# state
# 8 3 0
# 4 1 6
# 2 7 5
state	= 830416275
id		=  78940
       id  next_id  length                                                                                                                     id_path
0       0        1       1                                                                                                                      [0, 1]
1       1        4       2                                                                                                                   [0, 1, 4]
2       4        8       3                                                                                                                [0, 1, 4, 8]
3       8       17       4                                                                                                            [0, 1, 4, 8, 17]
4      17       35       5                                                                                                        [0, 1, 4, 8, 17, 35]
5      35       59       6                                                                                                    [0, 1, 4, 8, 17, 35, 59]
6      59      102       7                                                                                               [0, 1, 4, 8, 17, 35, 59, 102]
7     102      176       8                                                                                          [0, 1, 4, 8, 17, 35, 59, 102, 176]
8     176      301       9                                                                                     [0, 1, 4, 8, 17, 35, 59, 102, 176, 301]
9     301      481      10                                                                                [0, 1, 4, 8, 17, 35, 59, 102, 176, 301, 481]
10    481      792      11                                                                           [0, 1, 4, 8, 17, 35, 59, 102, 176, 301, 481, 792]
11    792     1264      12                                                                     [0, 1, 4, 8, 17, 35, 59, 102, 176, 301, 481, 792, 1264]
12   1264     2072      13                                                               [0, 1, 4, 8, 17, 35, 59, 102, 176, 301, 481, 792, 1264, 2072]
13   2072     3281      14                                                         [0, 1, 4, 8, 17, 35, 59, 102, 176, 301, 481, 792, 1264, 2072, 3281]
14   3281     5324      15                                                   [0, 1, 4, 8, 17, 35, 59, 102, 176, 301, 481, 792, 1264, 2072, 3281, 5324]
15   5324     8303      16                                             [0, 1, 4, 8, 17, 35, 59, 102, 176, 301, 481, 792, 1264, 2072, 3281, 5324, 8303]
16   8303    13085      17                                      [0, 1, 4, 8, 17, 35, 59, 102, 176, 301, 481, 792, 1264, 2072, 3281, 5324, 8303, 13085]
17  13085    19721      18                               [0, 1, 4, 8, 17, 35, 59, 102, 176, 301, 481, 792, 1264, 2072, 3281, 5324, 8303, 13085, 19721]
18  19721    29634      19                        [0, 1, 4, 8, 17, 35, 59, 102, 176, 301, 481, 792, 1264, 2072, 3281, 5324, 8303, 13085, 19721, 29634]
19  29634    42287      20                 [0, 1, 4, 8, 17, 35, 59, 102, 176, 301, 481, 792, 1264, 2072, 3281, 5324, 8303, 13085, 19721, 29634, 42287]
20  42287    59548      21          [0, 1, 4, 8, 17, 35, 59, 102, 176, 301, 481, 792, 1264, 2072, 3281, 5324, 8303, 13085, 19721, 29634, 42287, 59548]
21  59548    78940      22   [0, 1, 4, 8, 17, 35, 59, 102, 176, 301, 481, 792, 1264, 2072, 3281, 5324, 8303, 13085, 19721, 29634, 42287, 59548, 78940]
22      0        2       1                                                                                                                      [0, 2]
23      2        5       2                                                                                                                   [0, 2, 5]
24      5       11       3                                                                                                               [0, 2, 5, 11]
25     11       23       4                                                                                                           [0, 2, 5, 11, 23]
26     23       41       5                                                                                                       [0, 2, 5, 11, 23, 41]
27     41       71       6                                                                                                   [0, 2, 5, 11, 23, 41, 71]
28     71      122       7                                                                                              [0, 2, 5, 11, 23, 41, 71, 122]
29    122      214       8                                                                                         [0, 2, 5, 11, 23, 41, 71, 122, 214]
30    214      346       9                                                                                    [0, 2, 5, 11, 23, 41, 71, 122, 214, 346]
31    346      568      10                                                                               [0, 2, 5, 11, 23, 41, 71, 122, 214, 346, 568]
32    568      913      11                                                                          [0, 2, 5, 11, 23, 41, 71, 122, 214, 346, 568, 913]
33    913     1493      12                                                                    [0, 2, 5, 11, 23, 41, 71, 122, 214, 346, 568, 913, 1493]
34   1493     2391      13                                                              [0, 2, 5, 11, 23, 41, 71, 122, 214, 346, 568, 913, 1493, 2391]
35   2391     3872      14                                                        [0, 2, 5, 11, 23, 41, 71, 122, 214, 346, 568, 913, 1493, 2391, 3872]
36   3872     6101      15                                                  [0, 2, 5, 11, 23, 41, 71, 122, 214, 346, 568, 913, 1493, 2391, 3872, 6101]
37   6101     9691      16                                            [0, 2, 5, 11, 23, 41, 71, 122, 214, 346, 568, 913, 1493, 2391, 3872, 6101, 9691]
38   9691    14808      17                                     [0, 2, 5, 11, 23, 41, 71, 122, 214, 346, 568, 913, 1493, 2391, 3872, 6101, 9691, 14808]
39  14808    22698      18                              [0, 2, 5, 11, 23, 41, 71, 122, 214, 346, 568, 913, 1493, 2391, 3872, 6101, 9691, 14808, 22698]
40  22698    32987      19                       [0, 2, 5, 11, 23, 41, 71, 122, 214, 346, 568, 913, 1493, 2391, 3872, 6101, 9691, 14808, 22698, 32987]
41  32987    47581      20                [0, 2, 5, 11, 23, 41, 71, 122, 214, 346, 568, 913, 1493, 2391, 3872, 6101, 9691, 14808, 22698, 32987, 47581]
42  47581    59548      21         [0, 2, 5, 11, 23, 41, 71, 122, 214, 346, 568, 913, 1493, 2391, 3872, 6101, 9691, 14808, 22698, 32987, 47581, 59548]
43  59548    78940      22  [0, 2, 5, 11, 23, 41, 71, 122, 214, 346, 568, 913, 1493, 2391, 3872, 6101, 9691, 14808, 22698, 32987, 47581, 59548, 78940]
44    913     1494      12                                                                    [0, 2, 5, 11, 23, 41, 71, 122, 214, 346, 568, 913, 1494]
45   1494     2392      13                                                              [0, 2, 5, 11, 23, 41, 71, 122, 214, 346, 568, 913, 1494, 2392]
46   2392     3875      14                                                        [0, 2, 5, 11, 23, 41, 71, 122, 214, 346, 568, 913, 1494, 2392, 3875]
47   3875     6104      15                                                  [0, 2, 5, 11, 23, 41, 71, 122, 214, 346, 568, 913, 1494, 2392, 3875, 6104]
48   6104     9696      16                                            [0, 2, 5, 11, 23, 41, 71, 122, 214, 346, 568, 913, 1494, 2392, 3875, 6104, 9696]
49   9696    14815      17                                     [0, 2, 5, 11, 23, 41, 71, 122, 214, 346, 568, 913, 1494, 2392, 3875, 6104, 9696, 14815]
50  14815    22712      18                              [0, 2, 5, 11, 23, 41, 71, 122, 214, 346, 568, 913, 1494, 2392, 3875, 6104, 9696, 14815, 22712]
51  22712    32987      19                       [0, 2, 5, 11, 23, 41, 71, 122, 214, 346, 568, 913, 1494, 2392, 3875, 6104, 9696, 14815, 22712, 32987]
52  32987    47581      20                [0, 2, 5, 11, 23, 41, 71, 122, 214, 346, 568, 913, 1494, 2392, 3875, 6104, 9696, 14815, 22712, 32987, 47581]
53  47581    59548      21         [0, 2, 5, 11, 23, 41, 71, 122, 214, 346, 568, 913, 1494, 2392, 3875, 6104, 9696, 14815, 22712, 32987, 47581, 59548]
54  59548    78940      22  [0, 2, 5, 11, 23, 41, 71, 122, 214, 346, 568, 913, 1494, 2392, 3875, 6104, 9696, 14815, 22712, 32987, 47581, 59548, 78940]

