{
    "0": {
        "1": 1,
        "2": 1
    },
    "1": {
        "3": 1,
        "4": 1
    },
    "2": {
        "5": 1,
        "6": 1
    },
    "3": {
        "7": 1
    },
    "4": {
        "8": 1,
        "9": 1,
        "10": 1
    },
    "5": {
        "11": 1,
        "12": 1,
        "13": 1
    },
    "6": {
        "14": 1
    },
    "7": {
        "15": 1,
        "16": 1
    },
    "8": {
        "17": 1,
        "18": 1
    },
    "9": {
        "19": 1,
        "20": 1
    },
    "10": {
        "21": 1,
        "22": 1
    },
    "11": {
        "23": 1,
        "24": 1
    },
    "12": {
        "25": 1,
        "26": 1
    },
    "13": {
        "27": 1,
        "28": 1
    },
    "14": {
        "29": 1,
        "30": 1
    }
}