{
    "e00": {
        "pheromone": 1.0,
        "node": ["n0", "n1"]
    },
    "e01": {
        "pheromone": 1.0,
        "node": ["n1", "n2"]
    },
    "e02": {
        "pheromone": 1.0,
        "node": ["n0", "n3"]
    },
    "e03": {
        "pheromone": 1.0,
        "node": ["n1", "n4"]
    },
    "e04": {
        "pheromone": 1.0,
        "node": ["n2", "n5"]
    },
    "e05": {
        "pheromone": 1.0,
        "node": ["n3", "n4"]
    },
    "e06": {
        "pheromone": 1.0,
        "node": ["n4", "n5"]
    },
    "e07": {
        "pheromone": 1.0,
        "node": ["n3", "n6"]
    },
    "e08": {
        "pheromone": 1.0,
        "node": ["n4", "n7"]
    },
    "e09": {
        "pheromone": 1.0,
        "node": ["n5", "n8"]
    },
    "e10": {
        "pheromone": 1.0,
        "node": ["n6", "n7"]
    },
    "e11": {
        "pheromone": 1.0,
        "node": ["n7", "n8"]
    }
}