{
    "n0": ["e00", "e02"],
    "n1": ["e00", "e01", "e03"],
    "n2": ["e01", "e04"],
    "n3": ["e02", "e05", "e07"],
    "n4": ["e03", "e05", "e06", "e08"],
    "n5": ["e04", "e06", "e09"],
    "n6": ["e07", "e10"],
    "n7": ["e08", "e10", "e11"],
    "n8": ["e09", "e11"]
}